Functions for a Twitter bot • tweetrbot
…
library(tweetrbot)

This package is presented in a blog post on https://statnmap.com/2019-08-30-create-a-twitter-bot-on-a-raspberry-pi-3-using-r

Run the scripts to retweet a specific hashtag

This is set for a bot. This means that every tweets retrieved from get_and_store() will be retweeted using retweet_and_update() using a loop, with 1 tweet every 600 seconds here. Set to debug=TRUE to avoid really tweeting on Twitter if you want to make some tests.

## Retrieve tweets, store on the drive
get_and_store(query = "#rspatial", n_tweets = 20, dir = ".")
## Tweet regularly and update the table stored on the drive
retweet_and_update(dir = ".", n_tweets = 20, n_limit = 3, sys_sleep = 600, debug = TRUE)

#> # A tibble: 1,568 x 92
#>    user_id status_id created_at          screen_name text  source
#>    <chr>   <chr>     <dttm>              <chr>       <chr> <chr> 
#>  1 330749… 13040524… 2020-09-10 13:41:43 PennMUSA    "Hav… Twitt…
#>  2 895591… 13040521… 2020-09-10 13:40:32 StatnMap    "🌍Th… Twitt…
#>  3 788105… 13038515… 2020-09-10 00:23:40 taraskaduk  "Hey… Twitt…
#>  4 828915… 13037746… 2020-09-09 19:17:55 dpprdan     "#rs… Twitt…
#>  5 523216… 13036839… 2020-09-09 13:17:18 charliejha… "How… Twitt…
#>  6 278275… 13036403… 2020-09-09 10:24:15 MichaelDor… "@tj… Twitt…
#>  7 304121… 13034890… 2020-09-09 00:22:54 charles_ga… "Wha… Twitt…
#>  8 120696… 13033874… 2020-09-08 17:39:22 ambiogeo    "Liv… Twitt…
#>  9 121618… 13032407… 2020-09-08 07:56:26 maurosc3ner "Bay… Twitt…
#> 10 599924… 13029931… 2020-09-07 15:32:40 ultrazool   "@ge… Twitt…
#> # … with 1,558 more rows, and 86 more variables: display_text_width <dbl>,
#> #   reply_to_status_id <chr>, reply_to_user_id <chr>,
#> #   reply_to_screen_name <chr>, is_quote <lgl>, is_retweet <lgl>,
#> #   favorite_count <int>, retweet_count <int>, quote_count <int>,
#> #   reply_count <int>, hashtags <list>, symbols <list>, urls_url <list>,
#> #   urls_t.co <list>, urls_expanded_url <list>, media_url <list>,
#> #   media_t.co <list>, media_expanded_url <list>, media_type <list>,
#> #   ext_media_url <list>, ext_media_t.co <list>, ext_media_expanded_url <list>,
#> #   ext_media_type <chr>, mentions_user_id <list>, mentions_screen_name <list>,
…
